"","total.dom","total.imp","total.s.all"
"AUS",4.28359159142766,28.795595827265,33.0791874186927
"AUT",-16.3696059260146,5.39488290219333,-10.9747230238213
"BEL",-12.5879190682874,10.8670990128968,-1.72082005539063
"BGR",-32.4695449419712,4.35346604302705,-28.1160788989442
"BRA",39.0956809840397,25.5672479985448,64.6629289825845
"CAN",7.20094600305651,19.3350215634755,26.5359675665319
"CHE",-2.70182012949538,6.64060660716983,3.93878647767449
"CHN",171.399376380326,20.7856579997272,192.185034380053
"CYP",-6.19318680734273,2.62395495032138,-3.56923185702134
"CZE",-30.8519409080769,8.87081108339452,-21.9811298246824
"DEU",-10.1835545595671,-1.32530114398586,-11.5088557035529
"DNK",-16.7467342333597,8.28932941849638,-8.45740481486332
"ESP",-19.7033379713442,0.11731269800189,-19.5860252733423
"EST",-4.9716237220813,2.98398769333299,-1.98763602874831
"FIN",-17.2229425358382,4.14954446026277,-13.0733980755754
"FRA",-15.6417560070314,7.54427984380439,-8.09747616322693
"GBR",-12.7599339282891,-1.54963950815664,-14.3095734364458
"GRC",-24.7016215954781,-12.9591418568276,-37.6607634523057
"HRV",-16.3273775462347,-0.928521682082312,-17.255899228317
"HUN",-21.8417267661848,-3.04206268594342,-24.8837894521282
"IDN",77.037807067712,37.2972587501792,114.335065817891
"IND",102.452574205866,17.3750115644473,119.827585770313
"IRL",-9.97929971294534,12.3422435220962,2.3629438091509
"ITA",-18.9301696260162,-8.77111636451956,-27.7012859905357
"JPN",-6.82740011486234,-1.19808373344125,-8.02548384830357
"KOR",3.92729100918007,18.7500090959079,22.677300105088
"LTU",-18.9881838688013,-10.297892024942,-29.2860758937433
"LUX",-11.0593027334477,26.9156899929705,15.8563872595229
"LVA",-16.7954780880721,9.25368310226286,-7.54179498580929
"MEX",5.59991363877689,6.57376390342838,12.1736775422053
"MLT",-5.86823314775585,-17.9587305841393,-23.8269637318952
"NLD",-11.495359129342,8.22941829690281,-3.26594083243922
"NOR",12.0031626481582,30.1884512912357,42.1916139393938
"POL",-15.5146809871602,5.05868664252721,-10.455994344633
"PRT",-27.0485307352821,-5.57899853388873,-32.6275292691708
"ROU",-16.6420919033118,22.9425873684274,6.30049546511557
"RUS",42.1843610774944,20.5828583992771,62.7672194767714
"SVK",-29.9687545812362,13.4417351883726,-16.5270193928636
"SVN",-21.7132818360484,-1.46465891361648,-23.1779407496649
"SWE",-14.1449980832466,10.8021237746404,-3.34287430860618
"TUR",19.3286524997006,17.3162818774202,36.6449343771208
"TWN",-10.5703038699474,0.237722552268961,-10.3325813176784
"USA",-12.2812816949987,0.761054216574633,-11.520227478424
"ROW",63.408610613026,28.4157275095661,91.8243381225921
