"","total.dom","total.imp","total.s.all"
"AUS",238.626230266338,49.3537994159892,287.980029682327
"AUT",75.2399942053238,38.5643336635907,113.804327868915
"BEL",74.3080977319925,49.7413872399372,124.04948497193
"BGR",137.097497910341,114.944981389743,252.042479300085
"BRA",232.088294384085,29.37275315249,261.461047536576
"CAN",132.285148931398,38.1404433576334,170.425592289031
"CHE",101.630992097103,37.8790241100959,139.510016207199
"CHN",623.260341778121,102.237511460484,725.497853238605
"CYP",71.6140935328333,34.2027941234092,105.816887656243
"CZE",127.347526167174,85.3816758152414,212.729201982416
"DEU",57.1189231319621,24.1508313888991,81.2697545208613
"DNK",78.0277821298043,35.0589430151809,113.086725144985
"ESP",98.3880397227736,20.7587361484692,119.146775871243
"EST",155.119469024165,119.881591339882,275.001060364047
"FIN",98.3080670601553,38.9550458315042,137.263112891659
"FRA",86.204311527983,25.9341486458269,112.13846017381
"GBR",61.0361901393517,20.3222157689439,81.3584059082956
"GRC",50.2706026469144,14.1014994594581,64.3721021063726
"HRV",105.147629359521,53.8868157055574,159.034445065079
"HUN",90.7991790764728,66.7840334401482,157.583212516621
"IDN",400.543480842152,81.9375572152908,482.481038057443
"IND",287.741088495937,49.5968487607628,337.3379372567
"IRL",79.1486122967461,58.7438250042551,137.892437301001
"ITA",66.5081181873136,15.2814874351089,81.7896056224226
"JPN",-1.48251612516599,7.59067036256098,6.10815423739503
"KOR",92.1920930990537,40.7957334018785,132.987826500932
"LTU",134.250382380237,122.453903930297,256.704286310534
"LUX",78.5484354562127,105.23816668248,183.786602138693
"LVA",147.384570324659,96.6575619870155,244.042132311674
"MEX",77.800630460941,19.5751544429584,97.3757849038993
"MLT",52.4994688761645,38.3289696164237,90.8284384925882
"NLD",59.8384677419492,35.9793186033783,95.8177863453274
"NOR",191.836466991888,49.9445083047362,241.780975296625
"POL",121.310173300037,66.3698469470551,187.680020247093
"PRT",51.1827006028386,19.245323438425,70.4280240412636
"ROU",274.55739135136,128.21966001689,402.77705136825
"RUS",632.94071239299,167.416759671507,800.357472064497
"SVK",176.85147294546,127.481327237348,304.332800182807
"SVN",57.1103748759983,45.6818995618318,102.79227443783
"SWE",97.9116834754136,38.2144632740411,136.126146749455
"TUR",146.457880378767,43.229487096905,189.687367475672
"TWN",29.6743352004131,16.3204425435171,45.9947777439302
"USA",55.9170784702968,8.87636340132345,64.7934418716202
"ROW",194.209539438769,91.5990754085702,285.808614847339
