﻿"LOCATION","Country","TRANSACT","Transaction","MEASURE","Measure","TIME","Year","Unit Code","Unit","PowerCode Code","PowerCode","Reference Period Code","Reference Period","Value","Flag Codes","Flags"
"AUS","Australia","B1_GE","Gross domestic product (expenditure approach)","HVPVOB","Per head, constant prices, constant PPPs, OECD base year","2015","2015","USD","US Dollar","0","Units","2015","2015",47232.62912,,
"AUS","Australia","B1_GE","Gross domestic product (expenditure approach)","HVPVOB","Per head, constant prices, constant PPPs, OECD base year","2016","2016","USD","US Dollar","0","Units","2015","2015",47568.259157,,
"AUS","Australia","B1_GE","Gross domestic product (expenditure approach)","HVPVOB","Per head, constant prices, constant PPPs, OECD base year","2017","2017","USD","US Dollar","0","Units","2015","2015",48116.439229,,
"AUS","Australia","B1_GE","Gross domestic product (expenditure approach)","HVPVOB","Per head, constant prices, constant PPPs, OECD base year","2018","2018","USD","US Dollar","0","Units","2015","2015",48384.296161,,
"AUS","Australia","B1_GE","Gross domestic product (expenditure approach)","HVPVOB","Per head, constant prices, constant PPPs, OECD base year","2019","2019","USD","US Dollar","0","Units","2015","2015",47651.907123,,
"AUS","Australia","B1_GE","Gross domestic product (expenditure approach)","HVPVOB","Per head, constant prices, constant PPPs, OECD base year","2020","2020","USD","US Dollar","0","Units","2015","2015",47738.306408,,
"AUS","Australia","B1_GE","Gross domestic product (expenditure approach)","HVPVOB","Per head, constant prices, constant PPPs, OECD base year","2021","2021","USD","US Dollar","0","Units","2015","2015",49894.12831,"E","Estimated value"
"AUT","Austria","B1_GE","Gross domestic product (expenditure approach)","HVPVOB","Per head, constant prices, constant PPPs, OECD base year","2015","2015","USD","US Dollar","0","Units","2015","2015",49942.056293,,
"AUT","Austria","B1_GE","Gross domestic product (expenditure approach)","HVPVOB","Per head, constant prices, constant PPPs, OECD base year","2016","2016","USD","US Dollar","0","Units","2015","2015",50292.869072,,
"AUT","Austria","B1_GE","Gross domestic product (expenditure approach)","HVPVOB","Per head, constant prices, constant PPPs, OECD base year","2017","2017","USD","US Dollar","0","Units","2015","2015",51105.598801,,
"AUT","Austria","B1_GE","Gross domestic product (expenditure approach)","HVPVOB","Per head, constant prices, constant PPPs, OECD base year","2018","2018","USD","US Dollar","0","Units","2015","2015",52131.347947,,
"AUT","Austria","B1_GE","Gross domestic product (expenditure approach)","HVPVOB","Per head, constant prices, constant PPPs, OECD base year","2019","2019","USD","US Dollar","0","Units","2015","2015",52670.76237,,
"AUT","Austria","B1_GE","Gross domestic product (expenditure approach)","HVPVOB","Per head, constant prices, constant PPPs, OECD base year","2020","2020","USD","US Dollar","0","Units","2015","2015",48907.642324,,
"AUT","Austria","B1_GE","Gross domestic product (expenditure approach)","HVPVOB","Per head, constant prices, constant PPPs, OECD base year","2021","2021","USD","US Dollar","0","Units","2015","2015",51025.478174,,
"BEL","Belgium","B1_GE","Gross domestic product (expenditure approach)","HVPVOB","Per head, constant prices, constant PPPs, OECD base year","2015","2015","USD","US Dollar","0","Units","2015","2015",46201.685891,,
"BEL","Belgium","B1_GE","Gross domestic product (expenditure approach)","HVPVOB","Per head, constant prices, constant PPPs, OECD base year","2016","2016","USD","US Dollar","0","Units","2015","2015",46551.557243,,
"BEL","Belgium","B1_GE","Gross domestic product (expenditure approach)","HVPVOB","Per head, constant prices, constant PPPs, OECD base year","2017","2017","USD","US Dollar","0","Units","2015","2015",47122.513182,,
"BEL","Belgium","B1_GE","Gross domestic product (expenditure approach)","HVPVOB","Per head, constant prices, constant PPPs, OECD base year","2018","2018","USD","US Dollar","0","Units","2015","2015",47773.014133,,
"BEL","Belgium","B1_GE","Gross domestic product (expenditure approach)","HVPVOB","Per head, constant prices, constant PPPs, OECD base year","2019","2019","USD","US Dollar","0","Units","2015","2015",48518.507345,,
"BEL","Belgium","B1_GE","Gross domestic product (expenditure approach)","HVPVOB","Per head, constant prices, constant PPPs, OECD base year","2020","2020","USD","US Dollar","0","Units","2015","2015",45544.271192,"P","Provisional value"
"BEL","Belgium","B1_GE","Gross domestic product (expenditure approach)","HVPVOB","Per head, constant prices, constant PPPs, OECD base year","2021","2021","USD","US Dollar","0","Units","2015","2015",48200.492558,"P","Provisional value"
"CAN","Canada","B1_GE","Gross domestic product (expenditure approach)","HVPVOB","Per head, constant prices, constant PPPs, OECD base year","2015","2015","USD","US Dollar","0","Units","2015","2015",44670.054374,,
"CAN","Canada","B1_GE","Gross domestic product (expenditure approach)","HVPVOB","Per head, constant prices, constant PPPs, OECD base year","2016","2016","USD","US Dollar","0","Units","2015","2015",44609.373407,,
"CAN","Canada","B1_GE","Gross domestic product (expenditure approach)","HVPVOB","Per head, constant prices, constant PPPs, OECD base year","2017","2017","USD","US Dollar","0","Units","2015","2015",45417.373568,,
"CAN","Canada","B1_GE","Gross domestic product (expenditure approach)","HVPVOB","Per head, constant prices, constant PPPs, OECD base year","2018","2018","USD","US Dollar","0","Units","2015","2015",45868.343109,,
"CAN","Canada","B1_GE","Gross domestic product (expenditure approach)","HVPVOB","Per head, constant prices, constant PPPs, OECD base year","2019","2019","USD","US Dollar","0","Units","2015","2015",46055.944792,,
"CAN","Canada","B1_GE","Gross domestic product (expenditure approach)","HVPVOB","Per head, constant prices, constant PPPs, OECD base year","2020","2020","USD","US Dollar","0","Units","2015","2015",43299.664127,,
"CAN","Canada","B1_GE","Gross domestic product (expenditure approach)","HVPVOB","Per head, constant prices, constant PPPs, OECD base year","2021","2021","USD","US Dollar","0","Units","2015","2015",45018.606529,,
"CZE","Czech Republic","B1_GE","Gross domestic product (expenditure approach)","HVPVOB","Per head, constant prices, constant PPPs, OECD base year","2015","2015","USD","US Dollar","0","Units","2015","2015",33909.309243,,
"CZE","Czech Republic","B1_GE","Gross domestic product (expenditure approach)","HVPVOB","Per head, constant prices, constant PPPs, OECD base year","2016","2016","USD","US Dollar","0","Units","2015","2015",34696.158781,,
"CZE","Czech Republic","B1_GE","Gross domestic product (expenditure approach)","HVPVOB","Per head, constant prices, constant PPPs, OECD base year","2017","2017","USD","US Dollar","0","Units","2015","2015",36405.974217,,
"CZE","Czech Republic","B1_GE","Gross domestic product (expenditure approach)","HVPVOB","Per head, constant prices, constant PPPs, OECD base year","2018","2018","USD","US Dollar","0","Units","2015","2015",37447.774915,,
"CZE","Czech Republic","B1_GE","Gross domestic product (expenditure approach)","HVPVOB","Per head, constant prices, constant PPPs, OECD base year","2019","2019","USD","US Dollar","0","Units","2015","2015",38427.283824,,
"CZE","Czech Republic","B1_GE","Gross domestic product (expenditure approach)","HVPVOB","Per head, constant prices, constant PPPs, OECD base year","2020","2020","USD","US Dollar","0","Units","2015","2015",36208.012906,,
"CZE","Czech Republic","B1_GE","Gross domestic product (expenditure approach)","HVPVOB","Per head, constant prices, constant PPPs, OECD base year","2021","2021","USD","US Dollar","0","Units","2015","2015",37501.262754,,
"DNK","Denmark","B1_GE","Gross domestic product (expenditure approach)","HVPVOB","Per head, constant prices, constant PPPs, OECD base year","2015","2015","USD","US Dollar","0","Units","2015","2015",49058.142344,,
"DNK","Denmark","B1_GE","Gross domestic product (expenditure approach)","HVPVOB","Per head, constant prices, constant PPPs, OECD base year","2016","2016","USD","US Dollar","0","Units","2015","2015",50235.017766,,
"DNK","Denmark","B1_GE","Gross domestic product (expenditure approach)","HVPVOB","Per head, constant prices, constant PPPs, OECD base year","2017","2017","USD","US Dollar","0","Units","2015","2015",51329.969285,,
"DNK","Denmark","B1_GE","Gross domestic product (expenditure approach)","HVPVOB","Per head, constant prices, constant PPPs, OECD base year","2018","2018","USD","US Dollar","0","Units","2015","2015",52089.171128,,
"DNK","Denmark","B1_GE","Gross domestic product (expenditure approach)","HVPVOB","Per head, constant prices, constant PPPs, OECD base year","2019","2019","USD","US Dollar","0","Units","2015","2015",52658.08331,,
"DNK","Denmark","B1_GE","Gross domestic product (expenditure approach)","HVPVOB","Per head, constant prices, constant PPPs, OECD base year","2020","2020","USD","US Dollar","0","Units","2015","2015",51492.684075,,
"DNK","Denmark","B1_GE","Gross domestic product (expenditure approach)","HVPVOB","Per head, constant prices, constant PPPs, OECD base year","2021","2021","USD","US Dollar","0","Units","2015","2015",53771.65977,,
"FIN","Finland","B1_GE","Gross domestic product (expenditure approach)","HVPVOB","Per head, constant prices, constant PPPs, OECD base year","2015","2015","USD","US Dollar","0","Units","2015","2015",42490.211049,,
"FIN","Finland","B1_GE","Gross domestic product (expenditure approach)","HVPVOB","Per head, constant prices, constant PPPs, OECD base year","2016","2016","USD","US Dollar","0","Units","2015","2015",43567.153009,,
"FIN","Finland","B1_GE","Gross domestic product (expenditure approach)","HVPVOB","Per head, constant prices, constant PPPs, OECD base year","2017","2017","USD","US Dollar","0","Units","2015","2015",44852.705041,,
"FIN","Finland","B1_GE","Gross domestic product (expenditure approach)","HVPVOB","Per head, constant prices, constant PPPs, OECD base year","2018","2018","USD","US Dollar","0","Units","2015","2015",45298.109327,,
"FIN","Finland","B1_GE","Gross domestic product (expenditure approach)","HVPVOB","Per head, constant prices, constant PPPs, OECD base year","2019","2019","USD","US Dollar","0","Units","2015","2015",45808.054336,,
"FIN","Finland","B1_GE","Gross domestic product (expenditure approach)","HVPVOB","Per head, constant prices, constant PPPs, OECD base year","2020","2020","USD","US Dollar","0","Units","2015","2015",44714.055731,,
"FIN","Finland","B1_GE","Gross domestic product (expenditure approach)","HVPVOB","Per head, constant prices, constant PPPs, OECD base year","2021","2021","USD","US Dollar","0","Units","2015","2015",45975.940553,,
"FRA","France","B1_GE","Gross domestic product (expenditure approach)","HVPVOB","Per head, constant prices, constant PPPs, OECD base year","2015","2015","USD","US Dollar","0","Units","2015","2015",40829.893311,,
"FRA","France","B1_GE","Gross domestic product (expenditure approach)","HVPVOB","Per head, constant prices, constant PPPs, OECD base year","2016","2016","USD","US Dollar","0","Units","2015","2015",41122.761483,,
"FRA","France","B1_GE","Gross domestic product (expenditure approach)","HVPVOB","Per head, constant prices, constant PPPs, OECD base year","2017","2017","USD","US Dollar","0","Units","2015","2015",41886.432468,,
"FRA","France","B1_GE","Gross domestic product (expenditure approach)","HVPVOB","Per head, constant prices, constant PPPs, OECD base year","2018","2018","USD","US Dollar","0","Units","2015","2015",42456.989255,,
"FRA","France","B1_GE","Gross domestic product (expenditure approach)","HVPVOB","Per head, constant prices, constant PPPs, OECD base year","2019","2019","USD","US Dollar","0","Units","2015","2015",43039.731864,"P","Provisional value"
"FRA","France","B1_GE","Gross domestic product (expenditure approach)","HVPVOB","Per head, constant prices, constant PPPs, OECD base year","2020","2020","USD","US Dollar","0","Units","2015","2015",39548.027925,"P","Provisional value"
"FRA","France","B1_GE","Gross domestic product (expenditure approach)","HVPVOB","Per head, constant prices, constant PPPs, OECD base year","2021","2021","USD","US Dollar","0","Units","2015","2015",42111.952755,"P","Provisional value"
"DEU","Germany","B1_GE","Gross domestic product (expenditure approach)","HVPVOB","Per head, constant prices, constant PPPs, OECD base year","2015","2015","USD","US Dollar","0","Units","2015","2015",47609.557159,,
"DEU","Germany","B1_GE","Gross domestic product (expenditure approach)","HVPVOB","Per head, constant prices, constant PPPs, OECD base year","2016","2016","USD","US Dollar","0","Units","2015","2015",48279.984174,,
"DEU","Germany","B1_GE","Gross domestic product (expenditure approach)","HVPVOB","Per head, constant prices, constant PPPs, OECD base year","2017","2017","USD","US Dollar","0","Units","2015","2015",49389.274604,,
"DEU","Germany","B1_GE","Gross domestic product (expenditure approach)","HVPVOB","Per head, constant prices, constant PPPs, OECD base year","2018","2018","USD","US Dollar","0","Units","2015","2015",49775.707452,"P","Provisional value"
"DEU","Germany","B1_GE","Gross domestic product (expenditure approach)","HVPVOB","Per head, constant prices, constant PPPs, OECD base year","2019","2019","USD","US Dollar","0","Units","2015","2015",50187.892019,"P","Provisional value"
"DEU","Germany","B1_GE","Gross domestic product (expenditure approach)","HVPVOB","Per head, constant prices, constant PPPs, OECD base year","2020","2020","USD","US Dollar","0","Units","2015","2015",47855.334816,"P","Provisional value"
"DEU","Germany","B1_GE","Gross domestic product (expenditure approach)","HVPVOB","Per head, constant prices, constant PPPs, OECD base year","2021","2021","USD","US Dollar","0","Units","2015","2015",49218.884626,"P","Provisional value"
"GRC","Greece","B1_GE","Gross domestic product (expenditure approach)","HVPVOB","Per head, constant prices, constant PPPs, OECD base year","2015","2015","USD","US Dollar","0","Units","2015","2015",26760.152201,,
"GRC","Greece","B1_GE","Gross domestic product (expenditure approach)","HVPVOB","Per head, constant prices, constant PPPs, OECD base year","2016","2016","USD","US Dollar","0","Units","2015","2015",26740.924783,,
"GRC","Greece","B1_GE","Gross domestic product (expenditure approach)","HVPVOB","Per head, constant prices, constant PPPs, OECD base year","2017","2017","USD","US Dollar","0","Units","2015","2015",27086.483356,,
"GRC","Greece","B1_GE","Gross domestic product (expenditure approach)","HVPVOB","Per head, constant prices, constant PPPs, OECD base year","2018","2018","USD","US Dollar","0","Units","2015","2015",27594.35237,,
"GRC","Greece","B1_GE","Gross domestic product (expenditure approach)","HVPVOB","Per head, constant prices, constant PPPs, OECD base year","2019","2019","USD","US Dollar","0","Units","2015","2015",28121.722248,"P","Provisional value"
"GRC","Greece","B1_GE","Gross domestic product (expenditure approach)","HVPVOB","Per head, constant prices, constant PPPs, OECD base year","2020","2020","USD","US Dollar","0","Units","2015","2015",25612.99305,"P","Provisional value"
"GRC","Greece","B1_GE","Gross domestic product (expenditure approach)","HVPVOB","Per head, constant prices, constant PPPs, OECD base year","2021","2021","USD","US Dollar","0","Units","2015","2015",27854.261965,"P","Provisional value"
"HUN","Hungary","B1_GE","Gross domestic product (expenditure approach)","HVPVOB","Per head, constant prices, constant PPPs, OECD base year","2015","2015","USD","US Dollar","0","Units","2015","2015",26806.595306,,
"HUN","Hungary","B1_GE","Gross domestic product (expenditure approach)","HVPVOB","Per head, constant prices, constant PPPs, OECD base year","2016","2016","USD","US Dollar","0","Units","2015","2015",27475.147803,,
"HUN","Hungary","B1_GE","Gross domestic product (expenditure approach)","HVPVOB","Per head, constant prices, constant PPPs, OECD base year","2017","2017","USD","US Dollar","0","Units","2015","2015",28724.205278,,
"HUN","Hungary","B1_GE","Gross domestic product (expenditure approach)","HVPVOB","Per head, constant prices, constant PPPs, OECD base year","2018","2018","USD","US Dollar","0","Units","2015","2015",30302.072782,,
"HUN","Hungary","B1_GE","Gross domestic product (expenditure approach)","HVPVOB","Per head, constant prices, constant PPPs, OECD base year","2019","2019","USD","US Dollar","0","Units","2015","2015",31696.389469,,
"HUN","Hungary","B1_GE","Gross domestic product (expenditure approach)","HVPVOB","Per head, constant prices, constant PPPs, OECD base year","2020","2020","USD","US Dollar","0","Units","2015","2015",30346.9059,"P","Provisional value"
"HUN","Hungary","B1_GE","Gross domestic product (expenditure approach)","HVPVOB","Per head, constant prices, constant PPPs, OECD base year","2021","2021","USD","US Dollar","0","Units","2015","2015",32634.585701,"P","Provisional value"
"JPN","Japan","B1_GE","Gross domestic product (expenditure approach)","HVPVOB","Per head, constant prices, constant PPPs, OECD base year","2015","2015","USD","US Dollar","0","Units","2015","2015",40908.781547,,
"JPN","Japan","B1_GE","Gross domestic product (expenditure approach)","HVPVOB","Per head, constant prices, constant PPPs, OECD base year","2016","2016","USD","US Dollar","0","Units","2015","2015",41274.637598,,
"JPN","Japan","B1_GE","Gross domestic product (expenditure approach)","HVPVOB","Per head, constant prices, constant PPPs, OECD base year","2017","2017","USD","US Dollar","0","Units","2015","2015",42041.309073,,
"JPN","Japan","B1_GE","Gross domestic product (expenditure approach)","HVPVOB","Per head, constant prices, constant PPPs, OECD base year","2018","2018","USD","US Dollar","0","Units","2015","2015",42374.81512,,
"JPN","Japan","B1_GE","Gross domestic product (expenditure approach)","HVPVOB","Per head, constant prices, constant PPPs, OECD base year","2019","2019","USD","US Dollar","0","Units","2015","2015",42365.475835,,
"JPN","Japan","B1_GE","Gross domestic product (expenditure approach)","HVPVOB","Per head, constant prices, constant PPPs, OECD base year","2020","2020","USD","US Dollar","0","Units","2015","2015",40603.661037,,
"JPN","Japan","B1_GE","Gross domestic product (expenditure approach)","HVPVOB","Per head, constant prices, constant PPPs, OECD base year","2021","2021","USD","US Dollar","0","Units","2015","2015",41329.622262,"E","Estimated value"
"POL","Poland","B1_GE","Gross domestic product (expenditure approach)","HVPVOB","Per head, constant prices, constant PPPs, OECD base year","2015","2015","USD","US Dollar","0","Units","2015","2015",26534.723216,,
"POL","Poland","B1_GE","Gross domestic product (expenditure approach)","HVPVOB","Per head, constant prices, constant PPPs, OECD base year","2016","2016","USD","US Dollar","0","Units","2015","2015",27388.313538,,
"POL","Poland","B1_GE","Gross domestic product (expenditure approach)","HVPVOB","Per head, constant prices, constant PPPs, OECD base year","2017","2017","USD","US Dollar","0","Units","2015","2015",28715.085067,,
"POL","Poland","B1_GE","Gross domestic product (expenditure approach)","HVPVOB","Per head, constant prices, constant PPPs, OECD base year","2018","2018","USD","US Dollar","0","Units","2015","2015",30259.493547,,
"POL","Poland","B1_GE","Gross domestic product (expenditure approach)","HVPVOB","Per head, constant prices, constant PPPs, OECD base year","2019","2019","USD","US Dollar","0","Units","2015","2015",31717.585313,,
"POL","Poland","B1_GE","Gross domestic product (expenditure approach)","HVPVOB","Per head, constant prices, constant PPPs, OECD base year","2020","2020","USD","US Dollar","0","Units","2015","2015",31061.515158,,
"POL","Poland","B1_GE","Gross domestic product (expenditure approach)","HVPVOB","Per head, constant prices, constant PPPs, OECD base year","2021","2021","USD","US Dollar","0","Units","2015","2015",33072.368402,,
"ESP","Spain","B1_GE","Gross domestic product (expenditure approach)","HVPVOB","Per head, constant prices, constant PPPs, OECD base year","2015","2015","USD","US Dollar","0","Units","2015","2015",34929.20969,,
"ESP","Spain","B1_GE","Gross domestic product (expenditure approach)","HVPVOB","Per head, constant prices, constant PPPs, OECD base year","2016","2016","USD","US Dollar","0","Units","2015","2015",35957.241506,,
"ESP","Spain","B1_GE","Gross domestic product (expenditure approach)","HVPVOB","Per head, constant prices, constant PPPs, OECD base year","2017","2017","USD","US Dollar","0","Units","2015","2015",36960.441235,,
"ESP","Spain","B1_GE","Gross domestic product (expenditure approach)","HVPVOB","Per head, constant prices, constant PPPs, OECD base year","2018","2018","USD","US Dollar","0","Units","2015","2015",37647.855374,,
"ESP","Spain","B1_GE","Gross domestic product (expenditure approach)","HVPVOB","Per head, constant prices, constant PPPs, OECD base year","2019","2019","USD","US Dollar","0","Units","2015","2015",38125.665984,"P","Provisional value"
"ESP","Spain","B1_GE","Gross domestic product (expenditure approach)","HVPVOB","Per head, constant prices, constant PPPs, OECD base year","2020","2020","USD","US Dollar","0","Units","2015","2015",33821.057673,"P","Provisional value"
"ESP","Spain","B1_GE","Gross domestic product (expenditure approach)","HVPVOB","Per head, constant prices, constant PPPs, OECD base year","2021","2021","USD","US Dollar","0","Units","2015","2015",35576.242269,"P","Provisional value"
"CHE","Switzerland","B1_GE","Gross domestic product (expenditure approach)","HVPVOB","Per head, constant prices, constant PPPs, OECD base year","2015","2015","USD","US Dollar","0","Units","2015","2015",66020.20952,,
"CHE","Switzerland","B1_GE","Gross domestic product (expenditure approach)","HVPVOB","Per head, constant prices, constant PPPs, OECD base year","2016","2016","USD","US Dollar","0","Units","2015","2015",66638.742152,,
"CHE","Switzerland","B1_GE","Gross domestic product (expenditure approach)","HVPVOB","Per head, constant prices, constant PPPs, OECD base year","2017","2017","USD","US Dollar","0","Units","2015","2015",67066.085769,,
"CHE","Switzerland","B1_GE","Gross domestic product (expenditure approach)","HVPVOB","Per head, constant prices, constant PPPs, OECD base year","2018","2018","USD","US Dollar","0","Units","2015","2015",68515.773961,,
"CHE","Switzerland","B1_GE","Gross domestic product (expenditure approach)","HVPVOB","Per head, constant prices, constant PPPs, OECD base year","2019","2019","USD","US Dollar","0","Units","2015","2015",68852.595707,,
"CHE","Switzerland","B1_GE","Gross domestic product (expenditure approach)","HVPVOB","Per head, constant prices, constant PPPs, OECD base year","2020","2020","USD","US Dollar","0","Units","2015","2015",66715.814889,,
"CHE","Switzerland","B1_GE","Gross domestic product (expenditure approach)","HVPVOB","Per head, constant prices, constant PPPs, OECD base year","2021","2021","USD","US Dollar","0","Units","2015","2015",68627.057631,"P","Provisional value"
"GBR","United Kingdom","B1_GE","Gross domestic product (expenditure approach)","HVPVOB","Per head, constant prices, constant PPPs, OECD base year","2015","2015","USD","US Dollar","0","Units","2015","2015",42916.969653,,
"GBR","United Kingdom","B1_GE","Gross domestic product (expenditure approach)","HVPVOB","Per head, constant prices, constant PPPs, OECD base year","2016","2016","USD","US Dollar","0","Units","2015","2015",43528.704545,,
"GBR","United Kingdom","B1_GE","Gross domestic product (expenditure approach)","HVPVOB","Per head, constant prices, constant PPPs, OECD base year","2017","2017","USD","US Dollar","0","Units","2015","2015",44193.911865,,
"GBR","United Kingdom","B1_GE","Gross domestic product (expenditure approach)","HVPVOB","Per head, constant prices, constant PPPs, OECD base year","2018","2018","USD","US Dollar","0","Units","2015","2015",44655.748203,,
"GBR","United Kingdom","B1_GE","Gross domestic product (expenditure approach)","HVPVOB","Per head, constant prices, constant PPPs, OECD base year","2019","2019","USD","US Dollar","0","Units","2015","2015",45156.993295,,
"GBR","United Kingdom","B1_GE","Gross domestic product (expenditure approach)","HVPVOB","Per head, constant prices, constant PPPs, OECD base year","2020","2020","USD","US Dollar","0","Units","2015","2015",40797.297111,,
"GBR","United Kingdom","B1_GE","Gross domestic product (expenditure approach)","HVPVOB","Per head, constant prices, constant PPPs, OECD base year","2021","2021","USD","US Dollar","0","Units","2015","2015",43541.048649,,
"CHN","China (People's Republic of)","B1_GE","Gross domestic product (expenditure approach)","HVPVOB","Per head, constant prices, constant PPPs, OECD base year","2015","2015","USD","US Dollar","0","Units","2015","2015",12865.800384,,
"CHN","China (People's Republic of)","B1_GE","Gross domestic product (expenditure approach)","HVPVOB","Per head, constant prices, constant PPPs, OECD base year","2016","2016","USD","US Dollar","0","Units","2015","2015",13657.49609,,
"CHN","China (People's Republic of)","B1_GE","Gross domestic product (expenditure approach)","HVPVOB","Per head, constant prices, constant PPPs, OECD base year","2017","2017","USD","US Dollar","0","Units","2015","2015",14525.041852,,
"CHN","China (People's Republic of)","B1_GE","Gross domestic product (expenditure approach)","HVPVOB","Per head, constant prices, constant PPPs, OECD base year","2018","2018","USD","US Dollar","0","Units","2015","2015",15446.975684,,
"CHN","China (People's Republic of)","B1_GE","Gross domestic product (expenditure approach)","HVPVOB","Per head, constant prices, constant PPPs, OECD base year","2019","2019","USD","US Dollar","0","Units","2015","2015",16336.520291,,
"COL","Colombia","B1_GE","Gross domestic product (expenditure approach)","HVPVOB","Per head, constant prices, constant PPPs, OECD base year","2015","2015","USD","US Dollar","0","Units","2015","2015",13330.562044,,
"COL","Colombia","B1_GE","Gross domestic product (expenditure approach)","HVPVOB","Per head, constant prices, constant PPPs, OECD base year","2016","2016","USD","US Dollar","0","Units","2015","2015",13457.968535,,
"COL","Colombia","B1_GE","Gross domestic product (expenditure approach)","HVPVOB","Per head, constant prices, constant PPPs, OECD base year","2017","2017","USD","US Dollar","0","Units","2015","2015",13491.492662,,
"COL","Colombia","B1_GE","Gross domestic product (expenditure approach)","HVPVOB","Per head, constant prices, constant PPPs, OECD base year","2018","2018","USD","US Dollar","0","Units","2015","2015",13687.982542,,
"COL","Colombia","B1_GE","Gross domestic product (expenditure approach)","HVPVOB","Per head, constant prices, constant PPPs, OECD base year","2019","2019","USD","US Dollar","0","Units","2015","2015",13973.924312,,
"COL","Colombia","B1_GE","Gross domestic product (expenditure approach)","HVPVOB","Per head, constant prices, constant PPPs, OECD base year","2020","2020","USD","US Dollar","0","Units","2015","2015",12853.334303,"P","Provisional value"
"COL","Colombia","B1_GE","Gross domestic product (expenditure approach)","HVPVOB","Per head, constant prices, constant PPPs, OECD base year","2021","2021","USD","US Dollar","0","Units","2015","2015",14064.777554,"E","Estimated value"
"SVN","Slovenia","B1_GE","Gross domestic product (expenditure approach)","HVPVOB","Per head, constant prices, constant PPPs, OECD base year","2015","2015","USD","US Dollar","0","Units","2015","2015",31631.838376,,
"SVN","Slovenia","B1_GE","Gross domestic product (expenditure approach)","HVPVOB","Per head, constant prices, constant PPPs, OECD base year","2016","2016","USD","US Dollar","0","Units","2015","2015",32620.374248,,
"SVN","Slovenia","B1_GE","Gross domestic product (expenditure approach)","HVPVOB","Per head, constant prices, constant PPPs, OECD base year","2017","2017","USD","US Dollar","0","Units","2015","2015",34171.539589,,
"SVN","Slovenia","B1_GE","Gross domestic product (expenditure approach)","HVPVOB","Per head, constant prices, constant PPPs, OECD base year","2018","2018","USD","US Dollar","0","Units","2015","2015",35577.093617,,
"SVN","Slovenia","B1_GE","Gross domestic product (expenditure approach)","HVPVOB","Per head, constant prices, constant PPPs, OECD base year","2019","2019","USD","US Dollar","0","Units","2015","2015",36433.587322,,
"SVN","Slovenia","B1_GE","Gross domestic product (expenditure approach)","HVPVOB","Per head, constant prices, constant PPPs, OECD base year","2020","2020","USD","US Dollar","0","Units","2015","2015",34663.95845,,
"SVN","Slovenia","B1_GE","Gross domestic product (expenditure approach)","HVPVOB","Per head, constant prices, constant PPPs, OECD base year","2021","2021","USD","US Dollar","0","Units","2015","2015",37385.739478,,
"MEX","Mexico","B1_GE","Gross domestic product (expenditure approach)","HVPVOB","Per head, constant prices, constant PPPs, OECD base year","2015","2015","USD","US Dollar","0","Units","2015","2015",18454.801482,,
"MEX","Mexico","B1_GE","Gross domestic product (expenditure approach)","HVPVOB","Per head, constant prices, constant PPPs, OECD base year","2016","2016","USD","US Dollar","0","Units","2015","2015",18743.12981,,
"MEX","Mexico","B1_GE","Gross domestic product (expenditure approach)","HVPVOB","Per head, constant prices, constant PPPs, OECD base year","2017","2017","USD","US Dollar","0","Units","2015","2015",18945.731659,,
"MEX","Mexico","B1_GE","Gross domestic product (expenditure approach)","HVPVOB","Per head, constant prices, constant PPPs, OECD base year","2018","2018","USD","US Dollar","0","Units","2015","2015",19171.508633,,
"MEX","Mexico","B1_GE","Gross domestic product (expenditure approach)","HVPVOB","Per head, constant prices, constant PPPs, OECD base year","2019","2019","USD","US Dollar","0","Units","2015","2015",18953.953418,"P","Provisional value"
"MEX","Mexico","B1_GE","Gross domestic product (expenditure approach)","HVPVOB","Per head, constant prices, constant PPPs, OECD base year","2020","2020","USD","US Dollar","0","Units","2015","2015",17246.028937,"P","Provisional value"
"MEX","Mexico","B1_GE","Gross domestic product (expenditure approach)","HVPVOB","Per head, constant prices, constant PPPs, OECD base year","2021","2021","USD","US Dollar","0","Units","2015","2015",17921.734815,"E","Estimated value"
"OECD","OECD - Total","B1_GE","Gross domestic product (expenditure approach)","HVPVOB","Per head, constant prices, constant PPPs, OECD base year","2015","2015","USD","US Dollar","0","Units","2015","2015",40468.421759,,
"OECD","OECD - Total","B1_GE","Gross domestic product (expenditure approach)","HVPVOB","Per head, constant prices, constant PPPs, OECD base year","2016","2016","USD","US Dollar","0","Units","2015","2015",40974.411918,,
"OECD","OECD - Total","B1_GE","Gross domestic product (expenditure approach)","HVPVOB","Per head, constant prices, constant PPPs, OECD base year","2017","2017","USD","US Dollar","0","Units","2015","2015",41815.723305,,
"OECD","OECD - Total","B1_GE","Gross domestic product (expenditure approach)","HVPVOB","Per head, constant prices, constant PPPs, OECD base year","2018","2018","USD","US Dollar","0","Units","2015","2015",42554.447017,"P","Provisional value"
"OECD","OECD - Total","B1_GE","Gross domestic product (expenditure approach)","HVPVOB","Per head, constant prices, constant PPPs, OECD base year","2019","2019","USD","US Dollar","0","Units","2015","2015",43029.91307,"P","Provisional value"
"OECD","OECD - Total","B1_GE","Gross domestic product (expenditure approach)","HVPVOB","Per head, constant prices, constant PPPs, OECD base year","2020","2020","USD","US Dollar","0","Units","2015","2015",40913.880087,"E","Estimated value"
"OECD","OECD - Total","B1_GE","Gross domestic product (expenditure approach)","HVPVOB","Per head, constant prices, constant PPPs, OECD base year","2021","2021","USD","US Dollar","0","Units","2015","2015",43021.189022,"E","Estimated value"
"ISR","Israel","B1_GE","Gross domestic product (expenditure approach)","HVPVOB","Per head, constant prices, constant PPPs, OECD base year","2015","2015","USD","US Dollar","0","Units","2015","2015",35482.650947,,
"ISR","Israel","B1_GE","Gross domestic product (expenditure approach)","HVPVOB","Per head, constant prices, constant PPPs, OECD base year","2016","2016","USD","US Dollar","0","Units","2015","2015",36344.724798,,
"ISR","Israel","B1_GE","Gross domestic product (expenditure approach)","HVPVOB","Per head, constant prices, constant PPPs, OECD base year","2017","2017","USD","US Dollar","0","Units","2015","2015",37210.975486,,
"ISR","Israel","B1_GE","Gross domestic product (expenditure approach)","HVPVOB","Per head, constant prices, constant PPPs, OECD base year","2018","2018","USD","US Dollar","0","Units","2015","2015",37947.027934,,
"ISR","Israel","B1_GE","Gross domestic product (expenditure approach)","HVPVOB","Per head, constant prices, constant PPPs, OECD base year","2019","2019","USD","US Dollar","0","Units","2015","2015",38642.358771,,
"ISR","Israel","B1_GE","Gross domestic product (expenditure approach)","HVPVOB","Per head, constant prices, constant PPPs, OECD base year","2020","2020","USD","US Dollar","0","Units","2015","2015",37137.212702,,
"ISR","Israel","B1_GE","Gross domestic product (expenditure approach)","HVPVOB","Per head, constant prices, constant PPPs, OECD base year","2021","2021","USD","US Dollar","0","Units","2015","2015",39527.371073,"E","Estimated value"
"NOR","Norway","B1_GE","Gross domestic product (expenditure approach)","HVPVOB","Per head, constant prices, constant PPPs, OECD base year","2015","2015","USD","US Dollar","0","Units","2015","2015",60352.716908,,
"NOR","Norway","B1_GE","Gross domestic product (expenditure approach)","HVPVOB","Per head, constant prices, constant PPPs, OECD base year","2016","2016","USD","US Dollar","0","Units","2015","2015",60463.531584,,
"NOR","Norway","B1_GE","Gross domestic product (expenditure approach)","HVPVOB","Per head, constant prices, constant PPPs, OECD base year","2017","2017","USD","US Dollar","0","Units","2015","2015",61387.585245,,
"NOR","Norway","B1_GE","Gross domestic product (expenditure approach)","HVPVOB","Per head, constant prices, constant PPPs, OECD base year","2018","2018","USD","US Dollar","0","Units","2015","2015",61665.407738,,
"NOR","Norway","B1_GE","Gross domestic product (expenditure approach)","HVPVOB","Per head, constant prices, constant PPPs, OECD base year","2019","2019","USD","US Dollar","0","Units","2015","2015",61707.111465,,
"NOR","Norway","B1_GE","Gross domestic product (expenditure approach)","HVPVOB","Per head, constant prices, constant PPPs, OECD base year","2020","2020","USD","US Dollar","0","Units","2015","2015",60911.481731,,
"NOR","Norway","B1_GE","Gross domestic product (expenditure approach)","HVPVOB","Per head, constant prices, constant PPPs, OECD base year","2021","2021","USD","US Dollar","0","Units","2015","2015",62936.10763,,
"SWE","Sweden","B1_GE","Gross domestic product (expenditure approach)","HVPVOB","Per head, constant prices, constant PPPs, OECD base year","2015","2015","USD","US Dollar","0","Units","2015","2015",49103.0618,,
"SWE","Sweden","B1_GE","Gross domestic product (expenditure approach)","HVPVOB","Per head, constant prices, constant PPPs, OECD base year","2016","2016","USD","US Dollar","0","Units","2015","2015",49493.989905,,
"SWE","Sweden","B1_GE","Gross domestic product (expenditure approach)","HVPVOB","Per head, constant prices, constant PPPs, OECD base year","2017","2017","USD","US Dollar","0","Units","2015","2015",50085.581874,,
"SWE","Sweden","B1_GE","Gross domestic product (expenditure approach)","HVPVOB","Per head, constant prices, constant PPPs, OECD base year","2018","2018","USD","US Dollar","0","Units","2015","2015",50472.544302,,
"SWE","Sweden","B1_GE","Gross domestic product (expenditure approach)","HVPVOB","Per head, constant prices, constant PPPs, OECD base year","2019","2019","USD","US Dollar","0","Units","2015","2015",50955.847529,,
"SWE","Sweden","B1_GE","Gross domestic product (expenditure approach)","HVPVOB","Per head, constant prices, constant PPPs, OECD base year","2020","2020","USD","US Dollar","0","Units","2015","2015",49491.027836,,
"SWE","Sweden","B1_GE","Gross domestic product (expenditure approach)","HVPVOB","Per head, constant prices, constant PPPs, OECD base year","2021","2021","USD","US Dollar","0","Units","2015","2015",51710.748149,,
"NLD","Netherlands","B1_GE","Gross domestic product (expenditure approach)","HVPVOB","Per head, constant prices, constant PPPs, OECD base year","2015","2015","USD","US Dollar","0","Units","2015","2015",50288.352815,,
"NLD","Netherlands","B1_GE","Gross domestic product (expenditure approach)","HVPVOB","Per head, constant prices, constant PPPs, OECD base year","2016","2016","USD","US Dollar","0","Units","2015","2015",51118.941306,,
"NLD","Netherlands","B1_GE","Gross domestic product (expenditure approach)","HVPVOB","Per head, constant prices, constant PPPs, OECD base year","2017","2017","USD","US Dollar","0","Units","2015","2015",52296.806666,,
"NLD","Netherlands","B1_GE","Gross domestic product (expenditure approach)","HVPVOB","Per head, constant prices, constant PPPs, OECD base year","2018","2018","USD","US Dollar","0","Units","2015","2015",53217.731693,,
"NLD","Netherlands","B1_GE","Gross domestic product (expenditure approach)","HVPVOB","Per head, constant prices, constant PPPs, OECD base year","2019","2019","USD","US Dollar","0","Units","2015","2015",53904.966038,,
"NLD","Netherlands","B1_GE","Gross domestic product (expenditure approach)","HVPVOB","Per head, constant prices, constant PPPs, OECD base year","2020","2020","USD","US Dollar","0","Units","2015","2015",51522.042454,"P","Provisional value"
"NLD","Netherlands","B1_GE","Gross domestic product (expenditure approach)","HVPVOB","Per head, constant prices, constant PPPs, OECD base year","2021","2021","USD","US Dollar","0","Units","2015","2015",53747.257208,"P","Provisional value"
"ZAF","South Africa","B1_GE","Gross domestic product (expenditure approach)","HVPVOB","Per head, constant prices, constant PPPs, OECD base year","2015","2015","USD","US Dollar","0","Units","2015","2015",12772.251817,,
"ZAF","South Africa","B1_GE","Gross domestic product (expenditure approach)","HVPVOB","Per head, constant prices, constant PPPs, OECD base year","2016","2016","USD","US Dollar","0","Units","2015","2015",12651.05718,,
"ZAF","South Africa","B1_GE","Gross domestic product (expenditure approach)","HVPVOB","Per head, constant prices, constant PPPs, OECD base year","2017","2017","USD","US Dollar","0","Units","2015","2015",12662.00964,,
"ZAF","South Africa","B1_GE","Gross domestic product (expenditure approach)","HVPVOB","Per head, constant prices, constant PPPs, OECD base year","2018","2018","USD","US Dollar","0","Units","2015","2015",12600.00527,,
"ZAF","South Africa","B1_GE","Gross domestic product (expenditure approach)","HVPVOB","Per head, constant prices, constant PPPs, OECD base year","2019","2019","USD","US Dollar","0","Units","2015","2015",12461.028324,,
"ZAF","South Africa","B1_GE","Gross domestic product (expenditure approach)","HVPVOB","Per head, constant prices, constant PPPs, OECD base year","2020","2020","USD","US Dollar","0","Units","2015","2015",11449.411433,,
"LUX","Luxembourg","B1_GE","Gross domestic product (expenditure approach)","HVPVOB","Per head, constant prices, constant PPPs, OECD base year","2015","2015","USD","US Dollar","0","Units","2015","2015",107898.304236,,
"LUX","Luxembourg","B1_GE","Gross domestic product (expenditure approach)","HVPVOB","Per head, constant prices, constant PPPs, OECD base year","2016","2016","USD","US Dollar","0","Units","2015","2015",110414.311916,,
"LUX","Luxembourg","B1_GE","Gross domestic product (expenditure approach)","HVPVOB","Per head, constant prices, constant PPPs, OECD base year","2017","2017","USD","US Dollar","0","Units","2015","2015",109460.497811,,
"LUX","Luxembourg","B1_GE","Gross domestic product (expenditure approach)","HVPVOB","Per head, constant prices, constant PPPs, OECD base year","2018","2018","USD","US Dollar","0","Units","2015","2015",109484.887116,,
"LUX","Luxembourg","B1_GE","Gross domestic product (expenditure approach)","HVPVOB","Per head, constant prices, constant PPPs, OECD base year","2019","2019","USD","US Dollar","0","Units","2015","2015",110770.522001,,
"LUX","Luxembourg","B1_GE","Gross domestic product (expenditure approach)","HVPVOB","Per head, constant prices, constant PPPs, OECD base year","2020","2020","USD","US Dollar","0","Units","2015","2015",107149.948568,,
"LUX","Luxembourg","B1_GE","Gross domestic product (expenditure approach)","HVPVOB","Per head, constant prices, constant PPPs, OECD base year","2021","2021","USD","US Dollar","0","Units","2015","2015",112751.394867,,
"PRT","Portugal","B1_GE","Gross domestic product (expenditure approach)","HVPVOB","Per head, constant prices, constant PPPs, OECD base year","2015","2015","USD","US Dollar","0","Units","2015","2015",29660.845901,,
"PRT","Portugal","B1_GE","Gross domestic product (expenditure approach)","HVPVOB","Per head, constant prices, constant PPPs, OECD base year","2016","2016","USD","US Dollar","0","Units","2015","2015",30355.379779,,
"PRT","Portugal","B1_GE","Gross domestic product (expenditure approach)","HVPVOB","Per head, constant prices, constant PPPs, OECD base year","2017","2017","USD","US Dollar","0","Units","2015","2015",31496.613462,,
"PRT","Portugal","B1_GE","Gross domestic product (expenditure approach)","HVPVOB","Per head, constant prices, constant PPPs, OECD base year","2018","2018","USD","US Dollar","0","Units","2015","2015",32446.029726,,
"PRT","Portugal","B1_GE","Gross domestic product (expenditure approach)","HVPVOB","Per head, constant prices, constant PPPs, OECD base year","2019","2019","USD","US Dollar","0","Units","2015","2015",33308.381474,,
"PRT","Portugal","B1_GE","Gross domestic product (expenditure approach)","HVPVOB","Per head, constant prices, constant PPPs, OECD base year","2020","2020","USD","US Dollar","0","Units","2015","2015",30464.350213,"P","Provisional value"
"PRT","Portugal","B1_GE","Gross domestic product (expenditure approach)","HVPVOB","Per head, constant prices, constant PPPs, OECD base year","2021","2021","USD","US Dollar","0","Units","2015","2015",31968.066566,"P","Provisional value"
"IDN","Indonesia","B1_GE","Gross domestic product (expenditure approach)","HVPVOB","Per head, constant prices, constant PPPs, OECD base year","2015","2015","USD","US Dollar","0","Units","2015","2015",10364.397282,,
"IDN","Indonesia","B1_GE","Gross domestic product (expenditure approach)","HVPVOB","Per head, constant prices, constant PPPs, OECD base year","2016","2016","USD","US Dollar","0","Units","2015","2015",10749.569786,,
"IDN","Indonesia","B1_GE","Gross domestic product (expenditure approach)","HVPVOB","Per head, constant prices, constant PPPs, OECD base year","2017","2017","USD","US Dollar","0","Units","2015","2015",11157.15188,,
"ITA","Italy","B1_GE","Gross domestic product (expenditure approach)","HVPVOB","Per head, constant prices, constant PPPs, OECD base year","2015","2015","USD","US Dollar","0","Units","2015","2015",37206.331822,,
"ITA","Italy","B1_GE","Gross domestic product (expenditure approach)","HVPVOB","Per head, constant prices, constant PPPs, OECD base year","2016","2016","USD","US Dollar","0","Units","2015","2015",37759.301812,,
"ITA","Italy","B1_GE","Gross domestic product (expenditure approach)","HVPVOB","Per head, constant prices, constant PPPs, OECD base year","2017","2017","USD","US Dollar","0","Units","2015","2015",38461.306412,,
"ITA","Italy","B1_GE","Gross domestic product (expenditure approach)","HVPVOB","Per head, constant prices, constant PPPs, OECD base year","2018","2018","USD","US Dollar","0","Units","2015","2015",38898.485629,,
"ITA","Italy","B1_GE","Gross domestic product (expenditure approach)","HVPVOB","Per head, constant prices, constant PPPs, OECD base year","2019","2019","USD","US Dollar","0","Units","2015","2015",39190.00142,,
"ITA","Italy","B1_GE","Gross domestic product (expenditure approach)","HVPVOB","Per head, constant prices, constant PPPs, OECD base year","2020","2020","USD","US Dollar","0","Units","2015","2015",35826.910383,,
"ITA","Italy","B1_GE","Gross domestic product (expenditure approach)","HVPVOB","Per head, constant prices, constant PPPs, OECD base year","2021","2021","USD","US Dollar","0","Units","2015","2015",38419.962585,,
"USA","United States","B1_GE","Gross domestic product (expenditure approach)","HVPVOB","Per head, constant prices, constant PPPs, OECD base year","2015","2015","USD","US Dollar","0","Units","2015","2015",56731.074605,,
"USA","United States","B1_GE","Gross domestic product (expenditure approach)","HVPVOB","Per head, constant prices, constant PPPs, OECD base year","2016","2016","USD","US Dollar","0","Units","2015","2015",57272.295424,,
"USA","United States","B1_GE","Gross domestic product (expenditure approach)","HVPVOB","Per head, constant prices, constant PPPs, OECD base year","2017","2017","USD","US Dollar","0","Units","2015","2015",58197.900136,,
"USA","United States","B1_GE","Gross domestic product (expenditure approach)","HVPVOB","Per head, constant prices, constant PPPs, OECD base year","2018","2018","USD","US Dollar","0","Units","2015","2015",59579.864414,,
"USA","United States","B1_GE","Gross domestic product (expenditure approach)","HVPVOB","Per head, constant prices, constant PPPs, OECD base year","2019","2019","USD","US Dollar","0","Units","2015","2015",60650.841828,,
"USA","United States","B1_GE","Gross domestic product (expenditure approach)","HVPVOB","Per head, constant prices, constant PPPs, OECD base year","2020","2020","USD","US Dollar","0","Units","2015","2015",58297.569082,,
"USA","United States","B1_GE","Gross domestic product (expenditure approach)","HVPVOB","Per head, constant prices, constant PPPs, OECD base year","2021","2021","USD","US Dollar","0","Units","2015","2015",61520.013434,"E","Estimated value"
"KOR","Korea","B1_GE","Gross domestic product (expenditure approach)","HVPVOB","Per head, constant prices, constant PPPs, OECD base year","2015","2015","USD","US Dollar","0","Units","2015","2015",37902.361018,,
"KOR","Korea","B1_GE","Gross domestic product (expenditure approach)","HVPVOB","Per head, constant prices, constant PPPs, OECD base year","2016","2016","USD","US Dollar","0","Units","2015","2015",38864.647711,,
"KOR","Korea","B1_GE","Gross domestic product (expenditure approach)","HVPVOB","Per head, constant prices, constant PPPs, OECD base year","2017","2017","USD","US Dollar","0","Units","2015","2015",39980.224147,,
"KOR","Korea","B1_GE","Gross domestic product (expenditure approach)","HVPVOB","Per head, constant prices, constant PPPs, OECD base year","2018","2018","USD","US Dollar","0","Units","2015","2015",40947.289523,,
"KOR","Korea","B1_GE","Gross domestic product (expenditure approach)","HVPVOB","Per head, constant prices, constant PPPs, OECD base year","2019","2019","USD","US Dollar","0","Units","2015","2015",41783.553441,,
"KOR","Korea","B1_GE","Gross domestic product (expenditure approach)","HVPVOB","Per head, constant prices, constant PPPs, OECD base year","2020","2020","USD","US Dollar","0","Units","2015","2015",41369.940617,"P","Provisional value"
"KOR","Korea","B1_GE","Gross domestic product (expenditure approach)","HVPVOB","Per head, constant prices, constant PPPs, OECD base year","2021","2021","USD","US Dollar","0","Units","2015","2015",42891.849004,"E","Estimated value"
"ISL","Iceland","B1_GE","Gross domestic product (expenditure approach)","HVPVOB","Per head, constant prices, constant PPPs, OECD base year","2015","2015","USD","US Dollar","0","Units","2015","2015",49203.294991,,
"ISL","Iceland","B1_GE","Gross domestic product (expenditure approach)","HVPVOB","Per head, constant prices, constant PPPs, OECD base year","2016","2016","USD","US Dollar","0","Units","2015","2015",51587.556544,,
"ISL","Iceland","B1_GE","Gross domestic product (expenditure approach)","HVPVOB","Per head, constant prices, constant PPPs, OECD base year","2017","2017","USD","US Dollar","0","Units","2015","2015",52499.406162,,
"ISL","Iceland","B1_GE","Gross domestic product (expenditure approach)","HVPVOB","Per head, constant prices, constant PPPs, OECD base year","2018","2018","USD","US Dollar","0","Units","2015","2015",53614.015034,,
"ISL","Iceland","B1_GE","Gross domestic product (expenditure approach)","HVPVOB","Per head, constant prices, constant PPPs, OECD base year","2019","2019","USD","US Dollar","0","Units","2015","2015",53709.910384,,
"ISL","Iceland","B1_GE","Gross domestic product (expenditure approach)","HVPVOB","Per head, constant prices, constant PPPs, OECD base year","2020","2020","USD","US Dollar","0","Units","2015","2015",49108.643175,,
"ISL","Iceland","B1_GE","Gross domestic product (expenditure approach)","HVPVOB","Per head, constant prices, constant PPPs, OECD base year","2021","2021","USD","US Dollar","0","Units","2015","2015",50418.563666,,
"TUR","Türkiye","B1_GE","Gross domestic product (expenditure approach)","HVPVOB","Per head, constant prices, constant PPPs, OECD base year","2015","2015","USD","US Dollar","0","Units","2015","2015",25855.912681,,
"TUR","Türkiye","B1_GE","Gross domestic product (expenditure approach)","HVPVOB","Per head, constant prices, constant PPPs, OECD base year","2016","2016","USD","US Dollar","0","Units","2015","2015",26357.927291,,
"TUR","Türkiye","B1_GE","Gross domestic product (expenditure approach)","HVPVOB","Per head, constant prices, constant PPPs, OECD base year","2017","2017","USD","US Dollar","0","Units","2015","2015",27970.139101,,
"TUR","Türkiye","B1_GE","Gross domestic product (expenditure approach)","HVPVOB","Per head, constant prices, constant PPPs, OECD base year","2018","2018","USD","US Dollar","0","Units","2015","2015",28416.535472,,
"TUR","Türkiye","B1_GE","Gross domestic product (expenditure approach)","HVPVOB","Per head, constant prices, constant PPPs, OECD base year","2019","2019","USD","US Dollar","0","Units","2015","2015",28262.436201,,
"TUR","Türkiye","B1_GE","Gross domestic product (expenditure approach)","HVPVOB","Per head, constant prices, constant PPPs, OECD base year","2020","2020","USD","US Dollar","0","Units","2015","2015",28491.252916,,
"TUR","Türkiye","B1_GE","Gross domestic product (expenditure approach)","HVPVOB","Per head, constant prices, constant PPPs, OECD base year","2021","2021","USD","US Dollar","0","Units","2015","2015",31335.003796,"P","Provisional value"
"CHL","Chile","B1_GE","Gross domestic product (expenditure approach)","HVPVOB","Per head, constant prices, constant PPPs, OECD base year","2015","2015","USD","US Dollar","0","Units","2015","2015",22563.581773,,
"CHL","Chile","B1_GE","Gross domestic product (expenditure approach)","HVPVOB","Per head, constant prices, constant PPPs, OECD base year","2016","2016","USD","US Dollar","0","Units","2015","2015",22711.779647,,
"CHL","Chile","B1_GE","Gross domestic product (expenditure approach)","HVPVOB","Per head, constant prices, constant PPPs, OECD base year","2017","2017","USD","US Dollar","0","Units","2015","2015",22705.133552,,
"CHL","Chile","B1_GE","Gross domestic product (expenditure approach)","HVPVOB","Per head, constant prices, constant PPPs, OECD base year","2018","2018","USD","US Dollar","0","Units","2015","2015",23192.764485,,
"CHL","Chile","B1_GE","Gross domestic product (expenditure approach)","HVPVOB","Per head, constant prices, constant PPPs, OECD base year","2019","2019","USD","US Dollar","0","Units","2015","2015",22936.254624,,
"CHL","Chile","B1_GE","Gross domestic product (expenditure approach)","HVPVOB","Per head, constant prices, constant PPPs, OECD base year","2020","2020","USD","US Dollar","0","Units","2015","2015",21175.965967,,
"CHL","Chile","B1_GE","Gross domestic product (expenditure approach)","HVPVOB","Per head, constant prices, constant PPPs, OECD base year","2021","2021","USD","US Dollar","0","Units","2015","2015",23382.39577,,
"NZL","New Zealand","B1_GE","Gross domestic product (expenditure approach)","HVPVOB","Per head, constant prices, constant PPPs, OECD base year","2015","2015","USD","US Dollar","0","Units","2015","2015",37246.951138,,
"NZL","New Zealand","B1_GE","Gross domestic product (expenditure approach)","HVPVOB","Per head, constant prices, constant PPPs, OECD base year","2016","2016","USD","US Dollar","0","Units","2015","2015",37782.848639,,
"NZL","New Zealand","B1_GE","Gross domestic product (expenditure approach)","HVPVOB","Per head, constant prices, constant PPPs, OECD base year","2017","2017","USD","US Dollar","0","Units","2015","2015",38649.872085,,
"NZL","New Zealand","B1_GE","Gross domestic product (expenditure approach)","HVPVOB","Per head, constant prices, constant PPPs, OECD base year","2018","2018","USD","US Dollar","0","Units","2015","2015",39513.023166,,
"NZL","New Zealand","B1_GE","Gross domestic product (expenditure approach)","HVPVOB","Per head, constant prices, constant PPPs, OECD base year","2019","2019","USD","US Dollar","0","Units","2015","2015",39807.000756,,
"NZL","New Zealand","B1_GE","Gross domestic product (expenditure approach)","HVPVOB","Per head, constant prices, constant PPPs, OECD base year","2020","2020","USD","US Dollar","0","Units","2015","2015",39025.982464,,
"NZL","New Zealand","B1_GE","Gross domestic product (expenditure approach)","HVPVOB","Per head, constant prices, constant PPPs, OECD base year","2021","2021","USD","US Dollar","0","Units","2015","2015",40755.049063,"E","Estimated value"
"SVK","Slovak Republic","B1_GE","Gross domestic product (expenditure approach)","HVPVOB","Per head, constant prices, constant PPPs, OECD base year","2015","2015","USD","US Dollar","0","Units","2015","2015",29972.9225,,
"SVK","Slovak Republic","B1_GE","Gross domestic product (expenditure approach)","HVPVOB","Per head, constant prices, constant PPPs, OECD base year","2016","2016","USD","US Dollar","0","Units","2015","2015",30504.304908,,
"SVK","Slovak Republic","B1_GE","Gross domestic product (expenditure approach)","HVPVOB","Per head, constant prices, constant PPPs, OECD base year","2017","2017","USD","US Dollar","0","Units","2015","2015",31369.577549,,
"SVK","Slovak Republic","B1_GE","Gross domestic product (expenditure approach)","HVPVOB","Per head, constant prices, constant PPPs, OECD base year","2018","2018","USD","US Dollar","0","Units","2015","2015",32514.300228,,
"SVK","Slovak Republic","B1_GE","Gross domestic product (expenditure approach)","HVPVOB","Per head, constant prices, constant PPPs, OECD base year","2019","2019","USD","US Dollar","0","Units","2015","2015",33317.166838,,
"SVK","Slovak Republic","B1_GE","Gross domestic product (expenditure approach)","HVPVOB","Per head, constant prices, constant PPPs, OECD base year","2020","2020","USD","US Dollar","0","Units","2015","2015",31822.048527,,
"SVK","Slovak Republic","B1_GE","Gross domestic product (expenditure approach)","HVPVOB","Per head, constant prices, constant PPPs, OECD base year","2021","2021","USD","US Dollar","0","Units","2015","2015",32840.187896,,
"IRL","Ireland","B1_GE","Gross domestic product (expenditure approach)","HVPVOB","Per head, constant prices, constant PPPs, OECD base year","2015","2015","USD","US Dollar","0","Units","2015","2015",69165.900652,,
"IRL","Ireland","B1_GE","Gross domestic product (expenditure approach)","HVPVOB","Per head, constant prices, constant PPPs, OECD base year","2016","2016","USD","US Dollar","0","Units","2015","2015",69763.138558,,
"IRL","Ireland","B1_GE","Gross domestic product (expenditure approach)","HVPVOB","Per head, constant prices, constant PPPs, OECD base year","2017","2017","USD","US Dollar","0","Units","2015","2015",75201.827361,,
"IRL","Ireland","B1_GE","Gross domestic product (expenditure approach)","HVPVOB","Per head, constant prices, constant PPPs, OECD base year","2018","2018","USD","US Dollar","0","Units","2015","2015",80634.508113,,
"IRL","Ireland","B1_GE","Gross domestic product (expenditure approach)","HVPVOB","Per head, constant prices, constant PPPs, OECD base year","2019","2019","USD","US Dollar","0","Units","2015","2015",83873.896605,,
"IRL","Ireland","B1_GE","Gross domestic product (expenditure approach)","HVPVOB","Per head, constant prices, constant PPPs, OECD base year","2020","2020","USD","US Dollar","0","Units","2015","2015",88110.595961,,
"IRL","Ireland","B1_GE","Gross domestic product (expenditure approach)","HVPVOB","Per head, constant prices, constant PPPs, OECD base year","2021","2021","USD","US Dollar","0","Units","2015","2015",99319.448805,,
"EST","Estonia","B1_GE","Gross domestic product (expenditure approach)","HVPVOB","Per head, constant prices, constant PPPs, OECD base year","2015","2015","USD","US Dollar","0","Units","2015","2015",29222.748082,,
"EST","Estonia","B1_GE","Gross domestic product (expenditure approach)","HVPVOB","Per head, constant prices, constant PPPs, OECD base year","2016","2016","USD","US Dollar","0","Units","2015","2015",30085.329975,,
"EST","Estonia","B1_GE","Gross domestic product (expenditure approach)","HVPVOB","Per head, constant prices, constant PPPs, OECD base year","2017","2017","USD","US Dollar","0","Units","2015","2015",31835.142824,,
"EST","Estonia","B1_GE","Gross domestic product (expenditure approach)","HVPVOB","Per head, constant prices, constant PPPs, OECD base year","2018","2018","USD","US Dollar","0","Units","2015","2015",33062.36298,,
"EST","Estonia","B1_GE","Gross domestic product (expenditure approach)","HVPVOB","Per head, constant prices, constant PPPs, OECD base year","2019","2019","USD","US Dollar","0","Units","2015","2015",34268.971189,,
"EST","Estonia","B1_GE","Gross domestic product (expenditure approach)","HVPVOB","Per head, constant prices, constant PPPs, OECD base year","2020","2020","USD","US Dollar","0","Units","2015","2015",33153.665901,,
"EST","Estonia","B1_GE","Gross domestic product (expenditure approach)","HVPVOB","Per head, constant prices, constant PPPs, OECD base year","2021","2021","USD","US Dollar","0","Units","2015","2015",35908.738296,,
"IND","India","B1_GE","Gross domestic product (expenditure approach)","HVPVOB","Per head, constant prices, constant PPPs, OECD base year","2015","2015","USD","US Dollar","0","Units","2015","2015",5580.513112,,
"IND","India","B1_GE","Gross domestic product (expenditure approach)","HVPVOB","Per head, constant prices, constant PPPs, OECD base year","2016","2016","USD","US Dollar","0","Units","2015","2015",5966.846148,,
"IND","India","B1_GE","Gross domestic product (expenditure approach)","HVPVOB","Per head, constant prices, constant PPPs, OECD base year","2017","2017","USD","US Dollar","0","Units","2015","2015",6299.572886,,
"IND","India","B1_GE","Gross domestic product (expenditure approach)","HVPVOB","Per head, constant prices, constant PPPs, OECD base year","2018","2018","USD","US Dollar","0","Units","2015","2015",6645.377546,,
"IND","India","B1_GE","Gross domestic product (expenditure approach)","HVPVOB","Per head, constant prices, constant PPPs, OECD base year","2019","2019","USD","US Dollar","0","Units","2015","2015",6841.772606,,
"RUS","Russia","B1_GE","Gross domestic product (expenditure approach)","HVPVOB","Per head, constant prices, constant PPPs, OECD base year","2015","2015","USD","US Dollar","0","Units","2015","2015",24085.312853,,
"RUS","Russia","B1_GE","Gross domestic product (expenditure approach)","HVPVOB","Per head, constant prices, constant PPPs, OECD base year","2016","2016","USD","US Dollar","0","Units","2015","2015",24087.776995,,
"RUS","Russia","B1_GE","Gross domestic product (expenditure approach)","HVPVOB","Per head, constant prices, constant PPPs, OECD base year","2017","2017","USD","US Dollar","0","Units","2015","2015",24499.535648,,
"RUS","Russia","B1_GE","Gross domestic product (expenditure approach)","HVPVOB","Per head, constant prices, constant PPPs, OECD base year","2018","2018","USD","US Dollar","0","Units","2015","2015",25189.321919,,
"RUS","Russia","B1_GE","Gross domestic product (expenditure approach)","HVPVOB","Per head, constant prices, constant PPPs, OECD base year","2019","2019","USD","US Dollar","0","Units","2015","2015",25712.956876,,
"LVA","Latvia","B1_GE","Gross domestic product (expenditure approach)","HVPVOB","Per head, constant prices, constant PPPs, OECD base year","2015","2015","USD","US Dollar","0","Units","2015","2015",24975.479748,,
"LVA","Latvia","B1_GE","Gross domestic product (expenditure approach)","HVPVOB","Per head, constant prices, constant PPPs, OECD base year","2016","2016","USD","US Dollar","0","Units","2015","2015",25801.351861,,
"LVA","Latvia","B1_GE","Gross domestic product (expenditure approach)","HVPVOB","Per head, constant prices, constant PPPs, OECD base year","2017","2017","USD","US Dollar","0","Units","2015","2015",26905.753837,,
"LVA","Latvia","B1_GE","Gross domestic product (expenditure approach)","HVPVOB","Per head, constant prices, constant PPPs, OECD base year","2018","2018","USD","US Dollar","0","Units","2015","2015",28195.767817,,
"LVA","Latvia","B1_GE","Gross domestic product (expenditure approach)","HVPVOB","Per head, constant prices, constant PPPs, OECD base year","2019","2019","USD","US Dollar","0","Units","2015","2015",29093.527409,,
"LVA","Latvia","B1_GE","Gross domestic product (expenditure approach)","HVPVOB","Per head, constant prices, constant PPPs, OECD base year","2020","2020","USD","US Dollar","0","Units","2015","2015",28178.502192,,
"LVA","Latvia","B1_GE","Gross domestic product (expenditure approach)","HVPVOB","Per head, constant prices, constant PPPs, OECD base year","2021","2021","USD","US Dollar","0","Units","2015","2015",29720.573255,,
"BRA","Brazil","B1_GE","Gross domestic product (expenditure approach)","HVPVOB","Per head, constant prices, constant PPPs, OECD base year","2015","2015","USD","US Dollar","0","Units","2015","2015",14816.290598,,
"BRA","Brazil","B1_GE","Gross domestic product (expenditure approach)","HVPVOB","Per head, constant prices, constant PPPs, OECD base year","2016","2016","USD","US Dollar","0","Units","2015","2015",14213.504074,,
"BRA","Brazil","B1_GE","Gross domestic product (expenditure approach)","HVPVOB","Per head, constant prices, constant PPPs, OECD base year","2017","2017","USD","US Dollar","0","Units","2015","2015",14286.755482,,
"BRA","Brazil","B1_GE","Gross domestic product (expenditure approach)","HVPVOB","Per head, constant prices, constant PPPs, OECD base year","2018","2018","USD","US Dollar","0","Units","2015","2015",13989.126417,,
"BRA","Brazil","B1_GE","Gross domestic product (expenditure approach)","HVPVOB","Per head, constant prices, constant PPPs, OECD base year","2019","2019","USD","US Dollar","0","Units","2015","2015",14048.574161,,
"LTU","Lithuania","B1_GE","Gross domestic product (expenditure approach)","HVPVOB","Per head, constant prices, constant PPPs, OECD base year","2015","2015","USD","US Dollar","0","Units","2015","2015",28834.457574,,
"LTU","Lithuania","B1_GE","Gross domestic product (expenditure approach)","HVPVOB","Per head, constant prices, constant PPPs, OECD base year","2016","2016","USD","US Dollar","0","Units","2015","2015",29938.77101,,
"LTU","Lithuania","B1_GE","Gross domestic product (expenditure approach)","HVPVOB","Per head, constant prices, constant PPPs, OECD base year","2017","2017","USD","US Dollar","0","Units","2015","2015",31660.564089,,
"LTU","Lithuania","B1_GE","Gross domestic product (expenditure approach)","HVPVOB","Per head, constant prices, constant PPPs, OECD base year","2018","2018","USD","US Dollar","0","Units","2015","2015",33240.538254,,
"LTU","Lithuania","B1_GE","Gross domestic product (expenditure approach)","HVPVOB","Per head, constant prices, constant PPPs, OECD base year","2019","2019","USD","US Dollar","0","Units","2015","2015",34853.019736,,
"LTU","Lithuania","B1_GE","Gross domestic product (expenditure approach)","HVPVOB","Per head, constant prices, constant PPPs, OECD base year","2020","2020","USD","US Dollar","0","Units","2015","2015",34797.547906,,
"LTU","Lithuania","B1_GE","Gross domestic product (expenditure approach)","HVPVOB","Per head, constant prices, constant PPPs, OECD base year","2021","2021","USD","US Dollar","0","Units","2015","2015",36434.667431,,
"SAU","Saudi Arabia","B1_GE","Gross domestic product (expenditure approach)","HVPVOB","Per head, constant prices, constant PPPs, OECD base year","2015","2015","USD","US Dollar","0","Units","2015","2015",49491.35095,,
"SAU","Saudi Arabia","B1_GE","Gross domestic product (expenditure approach)","HVPVOB","Per head, constant prices, constant PPPs, OECD base year","2016","2016","USD","US Dollar","0","Units","2015","2015",49173.092605,,
"SAU","Saudi Arabia","B1_GE","Gross domestic product (expenditure approach)","HVPVOB","Per head, constant prices, constant PPPs, OECD base year","2017","2017","USD","US Dollar","0","Units","2015","2015",47558.652074,,
"SAU","Saudi Arabia","B1_GE","Gross domestic product (expenditure approach)","HVPVOB","Per head, constant prices, constant PPPs, OECD base year","2018","2018","USD","US Dollar","0","Units","2015","2015",47700.269114,,
"SAU","Saudi Arabia","B1_GE","Gross domestic product (expenditure approach)","HVPVOB","Per head, constant prices, constant PPPs, OECD base year","2019","2019","USD","US Dollar","0","Units","2015","2015",46733.158278,,
"SAU","Saudi Arabia","B1_GE","Gross domestic product (expenditure approach)","HVPVOB","Per head, constant prices, constant PPPs, OECD base year","2020","2020","USD","US Dollar","0","Units","2015","2015",43670.608437,,
"EA19","Euro area (19 countries)","B1_GE","Gross domestic product (expenditure approach)","HVPVOB","Per head, constant prices, constant PPPs, OECD base year","2015","2015","USD","US Dollar","0","Units","2015","2015",41140.104419,,
"EA19","Euro area (19 countries)","B1_GE","Gross domestic product (expenditure approach)","HVPVOB","Per head, constant prices, constant PPPs, OECD base year","2016","2016","USD","US Dollar","0","Units","2015","2015",41774.329915,,
"EA19","Euro area (19 countries)","B1_GE","Gross domestic product (expenditure approach)","HVPVOB","Per head, constant prices, constant PPPs, OECD base year","2017","2017","USD","US Dollar","0","Units","2015","2015",42771.228246,,
"EA19","Euro area (19 countries)","B1_GE","Gross domestic product (expenditure approach)","HVPVOB","Per head, constant prices, constant PPPs, OECD base year","2018","2018","USD","US Dollar","0","Units","2015","2015",43436.064239,,
"EA19","Euro area (19 countries)","B1_GE","Gross domestic product (expenditure approach)","HVPVOB","Per head, constant prices, constant PPPs, OECD base year","2019","2019","USD","US Dollar","0","Units","2015","2015",43990.662979,,
"EA19","Euro area (19 countries)","B1_GE","Gross domestic product (expenditure approach)","HVPVOB","Per head, constant prices, constant PPPs, OECD base year","2020","2020","USD","US Dollar","0","Units","2015","2015",41131.690247,,
"EA19","Euro area (19 countries)","B1_GE","Gross domestic product (expenditure approach)","HVPVOB","Per head, constant prices, constant PPPs, OECD base year","2021","2021","USD","US Dollar","0","Units","2015","2015",43316.917972,,
"ARG","Argentina","B1_GE","Gross domestic product (expenditure approach)","HVPVOB","Per head, constant prices, constant PPPs, OECD base year","2015","2015","USD","US Dollar","0","Units","2015","2015",20105.198994,,
"ARG","Argentina","B1_GE","Gross domestic product (expenditure approach)","HVPVOB","Per head, constant prices, constant PPPs, OECD base year","2016","2016","USD","US Dollar","0","Units","2015","2015",19479.914458,,
"ARG","Argentina","B1_GE","Gross domestic product (expenditure approach)","HVPVOB","Per head, constant prices, constant PPPs, OECD base year","2017","2017","USD","US Dollar","0","Units","2015","2015",19822.302821,,
"ARG","Argentina","B1_GE","Gross domestic product (expenditure approach)","HVPVOB","Per head, constant prices, constant PPPs, OECD base year","2018","2018","USD","US Dollar","0","Units","2015","2015",19108.380828,,
"ARG","Argentina","B1_GE","Gross domestic product (expenditure approach)","HVPVOB","Per head, constant prices, constant PPPs, OECD base year","2019","2019","USD","US Dollar","0","Units","2015","2015",18536.201787,,
"CRI","Costa Rica","B1_GE","Gross domestic product (expenditure approach)","HVPVOB","Per head, constant prices, constant PPPs, OECD base year","2015","2015","USD","US Dollar","0","Units","2015","2015",17649.314854,,
"CRI","Costa Rica","B1_GE","Gross domestic product (expenditure approach)","HVPVOB","Per head, constant prices, constant PPPs, OECD base year","2016","2016","USD","US Dollar","0","Units","2015","2015",18171.908528,,
"CRI","Costa Rica","B1_GE","Gross domestic product (expenditure approach)","HVPVOB","Per head, constant prices, constant PPPs, OECD base year","2017","2017","USD","US Dollar","0","Units","2015","2015",18709.918768,,
"CRI","Costa Rica","B1_GE","Gross domestic product (expenditure approach)","HVPVOB","Per head, constant prices, constant PPPs, OECD base year","2018","2018","USD","US Dollar","0","Units","2015","2015",18983.883458,,
"CRI","Costa Rica","B1_GE","Gross domestic product (expenditure approach)","HVPVOB","Per head, constant prices, constant PPPs, OECD base year","2019","2019","USD","US Dollar","0","Units","2015","2015",19233.940787,,
"CRI","Costa Rica","B1_GE","Gross domestic product (expenditure approach)","HVPVOB","Per head, constant prices, constant PPPs, OECD base year","2020","2020","USD","US Dollar","0","Units","2015","2015",18262.239618,"E","Estimated value"
"CRI","Costa Rica","B1_GE","Gross domestic product (expenditure approach)","HVPVOB","Per head, constant prices, constant PPPs, OECD base year","2021","2021","USD","US Dollar","0","Units","2015","2015",19446.545704,"E","Estimated value"
"BGR","Bulgaria","B1_GE","Gross domestic product (expenditure approach)","HVPVOB","Per head, constant prices, constant PPPs, OECD base year","2015","2015","USD","US Dollar","0","Units","2015","2015",18391.834891,,
"BGR","Bulgaria","B1_GE","Gross domestic product (expenditure approach)","HVPVOB","Per head, constant prices, constant PPPs, OECD base year","2016","2016","USD","US Dollar","0","Units","2015","2015",19084.301422,,
"BGR","Bulgaria","B1_GE","Gross domestic product (expenditure approach)","HVPVOB","Per head, constant prices, constant PPPs, OECD base year","2017","2017","USD","US Dollar","0","Units","2015","2015",19755.217365,,
"BGR","Bulgaria","B1_GE","Gross domestic product (expenditure approach)","HVPVOB","Per head, constant prices, constant PPPs, OECD base year","2018","2018","USD","US Dollar","0","Units","2015","2015",20432.569408,,
"BGR","Bulgaria","B1_GE","Gross domestic product (expenditure approach)","HVPVOB","Per head, constant prices, constant PPPs, OECD base year","2019","2019","USD","US Dollar","0","Units","2015","2015",21407.714215,,
"BGR","Bulgaria","B1_GE","Gross domestic product (expenditure approach)","HVPVOB","Per head, constant prices, constant PPPs, OECD base year","2020","2020","USD","US Dollar","0","Units","2015","2015",20591.754299,,
"BGR","Bulgaria","B1_GE","Gross domestic product (expenditure approach)","HVPVOB","Per head, constant prices, constant PPPs, OECD base year","2021","2021","USD","US Dollar","0","Units","2015","2015",21591.091991,"P","Provisional value"
"CYP","Cyprus","B1_GE","Gross domestic product (expenditure approach)","HVPVOB","Per head, constant prices, constant PPPs, OECD base year","2015","2015","USD","US Dollar","0","Units","2015","2015",31815.186807,,
"CYP","Cyprus","B1_GE","Gross domestic product (expenditure approach)","HVPVOB","Per head, constant prices, constant PPPs, OECD base year","2016","2016","USD","US Dollar","0","Units","2015","2015",33713.637584,,
"CYP","Cyprus","B1_GE","Gross domestic product (expenditure approach)","HVPVOB","Per head, constant prices, constant PPPs, OECD base year","2017","2017","USD","US Dollar","0","Units","2015","2015",35356.28684,,
"CYP","Cyprus","B1_GE","Gross domestic product (expenditure approach)","HVPVOB","Per head, constant prices, constant PPPs, OECD base year","2018","2018","USD","US Dollar","0","Units","2015","2015",36916.025126,,
"CYP","Cyprus","B1_GE","Gross domestic product (expenditure approach)","HVPVOB","Per head, constant prices, constant PPPs, OECD base year","2019","2019","USD","US Dollar","0","Units","2015","2015",38342.685469,,
"CYP","Cyprus","B1_GE","Gross domestic product (expenditure approach)","HVPVOB","Per head, constant prices, constant PPPs, OECD base year","2020","2020","USD","US Dollar","0","Units","2015","2015",36021.109199,"P","Provisional value"
"CYP","Cyprus","B1_GE","Gross domestic product (expenditure approach)","HVPVOB","Per head, constant prices, constant PPPs, OECD base year","2021","2021","USD","US Dollar","0","Units","2015","2015",37654.350713,"P","Provisional value"
"MLT","Malta","B1_GE","Gross domestic product (expenditure approach)","HVPVOB","Per head, constant prices, constant PPPs, OECD base year","2015","2015","USD","US Dollar","0","Units","2015","2015",37430.458001,,
"MLT","Malta","B1_GE","Gross domestic product (expenditure approach)","HVPVOB","Per head, constant prices, constant PPPs, OECD base year","2016","2016","USD","US Dollar","0","Units","2015","2015",37819.253585,,
"MLT","Malta","B1_GE","Gross domestic product (expenditure approach)","HVPVOB","Per head, constant prices, constant PPPs, OECD base year","2017","2017","USD","US Dollar","0","Units","2015","2015",40810.555759,,
"MLT","Malta","B1_GE","Gross domestic product (expenditure approach)","HVPVOB","Per head, constant prices, constant PPPs, OECD base year","2018","2018","USD","US Dollar","0","Units","2015","2015",41827.176426,,
"MLT","Malta","B1_GE","Gross domestic product (expenditure approach)","HVPVOB","Per head, constant prices, constant PPPs, OECD base year","2019","2019","USD","US Dollar","0","Units","2015","2015",42598.850124,,
"MLT","Malta","B1_GE","Gross domestic product (expenditure approach)","HVPVOB","Per head, constant prices, constant PPPs, OECD base year","2020","2020","USD","US Dollar","0","Units","2015","2015",38199.391762,,
"MLT","Malta","B1_GE","Gross domestic product (expenditure approach)","HVPVOB","Per head, constant prices, constant PPPs, OECD base year","2021","2021","USD","US Dollar","0","Units","2015","2015",41806.317104,,
"HRV","Croatia","B1_GE","Gross domestic product (expenditure approach)","HVPVOB","Per head, constant prices, constant PPPs, OECD base year","2015","2015","USD","US Dollar","0","Units","2015","2015",23276.854884,,
"HRV","Croatia","B1_GE","Gross domestic product (expenditure approach)","HVPVOB","Per head, constant prices, constant PPPs, OECD base year","2016","2016","USD","US Dollar","0","Units","2015","2015",24304.431588,,
"HRV","Croatia","B1_GE","Gross domestic product (expenditure approach)","HVPVOB","Per head, constant prices, constant PPPs, OECD base year","2017","2017","USD","US Dollar","0","Units","2015","2015",25393.397068,,
"HRV","Croatia","B1_GE","Gross domestic product (expenditure approach)","HVPVOB","Per head, constant prices, constant PPPs, OECD base year","2018","2018","USD","US Dollar","0","Units","2015","2015",26378.805987,,
"HRV","Croatia","B1_GE","Gross domestic product (expenditure approach)","HVPVOB","Per head, constant prices, constant PPPs, OECD base year","2019","2019","USD","US Dollar","0","Units","2015","2015",27456.097042,,
"HRV","Croatia","B1_GE","Gross domestic product (expenditure approach)","HVPVOB","Per head, constant prices, constant PPPs, OECD base year","2020","2020","USD","US Dollar","0","Units","2015","2015",25356.086087,"P","Provisional value"
"HRV","Croatia","B1_GE","Gross domestic product (expenditure approach)","HVPVOB","Per head, constant prices, constant PPPs, OECD base year","2021","2021","USD","US Dollar","0","Units","2015","2015",29093.03481,"E","Estimated value"
"ROU","Romania","B1_GE","Gross domestic product (expenditure approach)","HVPVOB","Per head, constant prices, constant PPPs, OECD base year","2015","2015","USD","US Dollar","0","Units","2015","2015",21598.495969,,
"ROU","Romania","B1_GE","Gross domestic product (expenditure approach)","HVPVOB","Per head, constant prices, constant PPPs, OECD base year","2016","2016","USD","US Dollar","0","Units","2015","2015",22747.196079,,
"ROU","Romania","B1_GE","Gross domestic product (expenditure approach)","HVPVOB","Per head, constant prices, constant PPPs, OECD base year","2017","2017","USD","US Dollar","0","Units","2015","2015",24553.568757,,
"ROU","Romania","B1_GE","Gross domestic product (expenditure approach)","HVPVOB","Per head, constant prices, constant PPPs, OECD base year","2018","2018","USD","US Dollar","0","Units","2015","2015",25805.295629,,
"ROU","Romania","B1_GE","Gross domestic product (expenditure approach)","HVPVOB","Per head, constant prices, constant PPPs, OECD base year","2019","2019","USD","US Dollar","0","Units","2015","2015",27026.054869,,
"ROU","Romania","B1_GE","Gross domestic product (expenditure approach)","HVPVOB","Per head, constant prices, constant PPPs, OECD base year","2020","2020","USD","US Dollar","0","Units","2015","2015",26156.73765,"P","Provisional value"
"ROU","Romania","B1_GE","Gross domestic product (expenditure approach)","HVPVOB","Per head, constant prices, constant PPPs, OECD base year","2021","2021","USD","US Dollar","0","Units","2015","2015",27792.471255,"P","Provisional value"
"CPV","Cabo Verde","B1_GE","Gross domestic product (expenditure approach)","HVPVOB","Per head, constant prices, constant PPPs, OECD base year","2015","2015","USD","US Dollar","0","Units","2015","2015",5991.438443,,
"CPV","Cabo Verde","B1_GE","Gross domestic product (expenditure approach)","HVPVOB","Per head, constant prices, constant PPPs, OECD base year","2016","2016","USD","US Dollar","0","Units","2015","2015",6202.497357,,
"CPV","Cabo Verde","B1_GE","Gross domestic product (expenditure approach)","HVPVOB","Per head, constant prices, constant PPPs, OECD base year","2017","2017","USD","US Dollar","0","Units","2015","2015",6360.249021,,
"CPV","Cabo Verde","B1_GE","Gross domestic product (expenditure approach)","HVPVOB","Per head, constant prices, constant PPPs, OECD base year","2018","2018","USD","US Dollar","0","Units","2015","2015",6562.89238,,
"CPV","Cabo Verde","B1_GE","Gross domestic product (expenditure approach)","HVPVOB","Per head, constant prices, constant PPPs, OECD base year","2019","2019","USD","US Dollar","0","Units","2015","2015",6859.207847,,
"CPV","Cabo Verde","B1_GE","Gross domestic product (expenditure approach)","HVPVOB","Per head, constant prices, constant PPPs, OECD base year","2020","2020","USD","US Dollar","0","Units","2015","2015",5782.10585,,
"MKD","North Macedonia","B1_GE","Gross domestic product (expenditure approach)","HVPVOB","Per head, constant prices, constant PPPs, OECD base year","2015","2015","USD","US Dollar","0","Units","2015","2015",13888.215929,"E","Estimated value"
"MKD","North Macedonia","B1_GE","Gross domestic product (expenditure approach)","HVPVOB","Per head, constant prices, constant PPPs, OECD base year","2016","2016","USD","US Dollar","0","Units","2015","2015",14268.198788,"E","Estimated value"
"MKD","North Macedonia","B1_GE","Gross domestic product (expenditure approach)","HVPVOB","Per head, constant prices, constant PPPs, OECD base year","2017","2017","USD","US Dollar","0","Units","2015","2015",14408.490763,"E","Estimated value"
"MKD","North Macedonia","B1_GE","Gross domestic product (expenditure approach)","HVPVOB","Per head, constant prices, constant PPPs, OECD base year","2018","2018","USD","US Dollar","0","Units","2015","2015",14811.3308,"E","Estimated value"
"ZMB","Zambia","B1_GE","Gross domestic product (expenditure approach)","HVPVOB","Per head, constant prices, constant PPPs, OECD base year","2015","2015","USD","US Dollar","0","Units","2015","2015",3430.48022,,
"ZMB","Zambia","B1_GE","Gross domestic product (expenditure approach)","HVPVOB","Per head, constant prices, constant PPPs, OECD base year","2016","2016","USD","US Dollar","0","Units","2015","2015",3453.964024,,
"ZMB","Zambia","B1_GE","Gross domestic product (expenditure approach)","HVPVOB","Per head, constant prices, constant PPPs, OECD base year","2017","2017","USD","US Dollar","0","Units","2015","2015",3471.629673,,
"ZMB","Zambia","B1_GE","Gross domestic product (expenditure approach)","HVPVOB","Per head, constant prices, constant PPPs, OECD base year","2018","2018","USD","US Dollar","0","Units","2015","2015",3508.03729,,
"ZMB","Zambia","B1_GE","Gross domestic product (expenditure approach)","HVPVOB","Per head, constant prices, constant PPPs, OECD base year","2019","2019","USD","US Dollar","0","Units","2015","2015",3457.186445,,
"HKG","Hong Kong, China","B1_GE","Gross domestic product (expenditure approach)","HVPVOB","Per head, constant prices, constant PPPs, OECD base year","2015","2015","USD","US Dollar","0","Units","2015","2015",56411.257311,"E","Estimated value"
"HKG","Hong Kong, China","B1_GE","Gross domestic product (expenditure approach)","HVPVOB","Per head, constant prices, constant PPPs, OECD base year","2016","2016","USD","US Dollar","0","Units","2015","2015",57273.747805,"E","Estimated value"
"HKG","Hong Kong, China","B1_GE","Gross domestic product (expenditure approach)","HVPVOB","Per head, constant prices, constant PPPs, OECD base year","2017","2017","USD","US Dollar","0","Units","2015","2015",59002.699913,"E","Estimated value"
"HKG","Hong Kong, China","B1_GE","Gross domestic product (expenditure approach)","HVPVOB","Per head, constant prices, constant PPPs, OECD base year","2018","2018","USD","US Dollar","0","Units","2015","2015",60201.675253,"E","Estimated value"
"HKG","Hong Kong, China","B1_GE","Gross domestic product (expenditure approach)","HVPVOB","Per head, constant prices, constant PPPs, OECD base year","2019","2019","USD","US Dollar","0","Units","2015","2015",58748.890766,"E","Estimated value"
"HKG","Hong Kong, China","B1_GE","Gross domestic product (expenditure approach)","HVPVOB","Per head, constant prices, constant PPPs, OECD base year","2020","2020","USD","US Dollar","0","Units","2015","2015",55360.458691,"E","Estimated value"
"MDG","Madagascar","B1_GE","Gross domestic product (expenditure approach)","HVPVOB","Per head, constant prices, constant PPPs, OECD base year","2015","2015","USD","US Dollar","0","Units","2015","2015",1562.306683,"E","Estimated value"
"MDG","Madagascar","B1_GE","Gross domestic product (expenditure approach)","HVPVOB","Per head, constant prices, constant PPPs, OECD base year","2016","2016","USD","US Dollar","0","Units","2015","2015",1583.705821,"E","Estimated value"
"MDG","Madagascar","B1_GE","Gross domestic product (expenditure approach)","HVPVOB","Per head, constant prices, constant PPPs, OECD base year","2017","2017","USD","US Dollar","0","Units","2015","2015",1604.471026,"E","Estimated value"
"MDG","Madagascar","B1_GE","Gross domestic product (expenditure approach)","HVPVOB","Per head, constant prices, constant PPPs, OECD base year","2018","2018","USD","US Dollar","0","Units","2015","2015",1609.888465,"E","Estimated value"
"MDG","Madagascar","B1_GE","Gross domestic product (expenditure approach)","HVPVOB","Per head, constant prices, constant PPPs, OECD base year","2019","2019","USD","US Dollar","0","Units","2015","2015",1640.121768,"E","Estimated value"
"MDG","Madagascar","B1_GE","Gross domestic product (expenditure approach)","HVPVOB","Per head, constant prices, constant PPPs, OECD base year","2020","2020","USD","US Dollar","0","Units","2015","2015",1488.582344,"E","Estimated value"
"MAR","Morocco","B1_GE","Gross domestic product (expenditure approach)","HVPVOB","Per head, constant prices, constant PPPs, OECD base year","2015","2015","USD","US Dollar","0","Units","2015","2015",7244.378725,"E","Estimated value"
"MAR","Morocco","B1_GE","Gross domestic product (expenditure approach)","HVPVOB","Per head, constant prices, constant PPPs, OECD base year","2016","2016","USD","US Dollar","0","Units","2015","2015",7244.0922,"E","Estimated value"
"MAR","Morocco","B1_GE","Gross domestic product (expenditure approach)","HVPVOB","Per head, constant prices, constant PPPs, OECD base year","2017","2017","USD","US Dollar","0","Units","2015","2015",7473.01749,"E","Estimated value"
"MAR","Morocco","B1_GE","Gross domestic product (expenditure approach)","HVPVOB","Per head, constant prices, constant PPPs, OECD base year","2018","2018","USD","US Dollar","0","Units","2015","2015",7628.175989,"E","Estimated value"
"MAR","Morocco","B1_GE","Gross domestic product (expenditure approach)","HVPVOB","Per head, constant prices, constant PPPs, OECD base year","2019","2019","USD","US Dollar","0","Units","2015","2015",7746.174849,"E","Estimated value"
"MAR","Morocco","B1_GE","Gross domestic product (expenditure approach)","HVPVOB","Per head, constant prices, constant PPPs, OECD base year","2020","2020","USD","US Dollar","0","Units","2015","2015",7184.995162,"E","Estimated value"
"EU27_2020","European Union – 27 countries (from 01/02/2020)","B1_GE","Gross domestic product (expenditure approach)","HVPVOB","Per head, constant prices, constant PPPs, OECD base year","2015","2015","USD","US Dollar","0","Units","2015","2015",38254.537042,,
"EU27_2020","European Union – 27 countries (from 01/02/2020)","B1_GE","Gross domestic product (expenditure approach)","HVPVOB","Per head, constant prices, constant PPPs, OECD base year","2016","2016","USD","US Dollar","0","Units","2015","2015",38934.05796,,
"EU27_2020","European Union – 27 countries (from 01/02/2020)","B1_GE","Gross domestic product (expenditure approach)","HVPVOB","Per head, constant prices, constant PPPs, OECD base year","2017","2017","USD","US Dollar","0","Units","2015","2015",39964.863724,,
"EU27_2020","European Union – 27 countries (from 01/02/2020)","B1_GE","Gross domestic product (expenditure approach)","HVPVOB","Per head, constant prices, constant PPPs, OECD base year","2018","2018","USD","US Dollar","0","Units","2015","2015",40709.192412,,
"EU27_2020","European Union – 27 countries (from 01/02/2020)","B1_GE","Gross domestic product (expenditure approach)","HVPVOB","Per head, constant prices, constant PPPs, OECD base year","2019","2019","USD","US Dollar","0","Units","2015","2015",41358.467696,,
"EU27_2020","European Union – 27 countries (from 01/02/2020)","B1_GE","Gross domestic product (expenditure approach)","HVPVOB","Per head, constant prices, constant PPPs, OECD base year","2020","2020","USD","US Dollar","0","Units","2015","2015",38890.223205,,
"EU27_2020","European Union – 27 countries (from 01/02/2020)","B1_GE","Gross domestic product (expenditure approach)","HVPVOB","Per head, constant prices, constant PPPs, OECD base year","2021","2021","USD","US Dollar","0","Units","2015","2015",41003.13364,,
